{
  "productAnalytics": [
    {
      "slug": "audience",
      "title": "Audience",
      "description": "Understand your audience",
      "icon": "users",
      "userDefined": false
    },
    {
      "slug": "behavior",
      "title": "Behavior",
      "description": "All insights on user activity",
      "userDefined": false
    }
  ]
}
